<svg width="192" height="192" viewBox="0 0 192 192" fill="none" xmlns="http://www.w3.org/2000/svg">
<g clip-path="url(#clip0)">
<path fill-rule="evenodd" clip-rule="evenodd" d="M2.53906 -0.460938C0.882208 -0.460938 -0.460938 0.882208 -0.460938 2.53906V189.461C-0.460938 191.118 0.882208 192.461 2.53906 192.461H189.461C191.118 192.461 192.461 191.118 192.461 189.461V2.53906C192.461 0.882208 191.118 -0.460938 189.461 -0.460938H2.53906ZM5.53906 186.461V5.53906H186.461V186.461H5.53906ZM41.7023 31.1047C41.0385 31.1036 40.4016 31.3665 39.9318 31.8355C39.4621 32.3045 39.1981 32.941 39.1981 33.6047V67.1285C39.1981 68.5092 40.3174 69.6285 41.6981 69.6285H70.2542L69.9549 155.367L69.9548 155.375C69.952 156.162 70.3132 156.865 70.88 157.325C71.0976 157.502 71.3455 157.643 71.6147 157.739L95.0334 166.726C95.5616 166.931 96.1609 166.959 96.7354 166.765C96.7699 166.753 96.8042 166.741 96.8383 166.728L119.631 158.081C120.602 157.713 121.244 156.783 121.244 155.744V69.6285H150.302C151.682 69.6285 152.802 68.5092 152.802 67.1285V33.785C152.802 32.4059 151.685 31.2873 150.306 31.285L41.7023 31.1047ZM118.728 64.6285H118.621C118.146 64.6285 117.702 64.7607 117.324 64.9904L94.7538 73.4383C93.7743 73.805 93.1265 74.7425 93.1302 75.7884L93.3709 145.014L74.9673 151.794L75.2626 67.2344C75.2817 66.7663 75.17 66.2929 74.9253 65.8737C74.8191 65.6907 74.6892 65.5203 74.5376 65.3676L47.4351 36.1143L147.802 36.2808V64.6285H118.76H118.728ZM44.1981 39.9773L67.0367 64.6285H44.1981V39.9773ZM79.5572 155.431L93.3894 150.336L93.4257 160.753L79.5572 155.431ZM98.3897 150.389L98.4258 160.778L111.821 155.696L98.3897 150.389ZM98.3709 145.005L116.244 152.068V70.7335L98.1362 77.5111L98.3709 145.005Z" fill="white"/>
</g>
<defs>
<clipPath id="clip0">
<rect width="192" height="192" fill="white"/>
</clipPath>
</defs>
</svg>
